%YAML 1.1
%TAG !u! tag:unity3d.com,2011:
--- !u!29 &1
OcclusionCullingSettings:
  m_ObjectHideFlags: 0
  serializedVersion: 2
  m_OcclusionBakeSettings:
    smallestOccluder: 5
    smallestHole: 0.25
    backfaceThreshold: 100
  m_SceneGUID: 00000000000000000000000000000000
  m_OcclusionCullingData: {fileID: 0}
--- !u!104 &2
RenderSettings:
  m_ObjectHideFlags: 0
  serializedVersion: 9
  m_Fog: 0
  m_FogColor: {r: 0.5, g: 0.5, b: 0.5, a: 1}
  m_FogMode: 3
  m_FogDensity: 0.01
  m_LinearFogStart: 0
  m_LinearFogEnd: 300
  m_AmbientSkyColor: {r: 0.212, g: 0.227, b: 0.259, a: 1}
  m_AmbientEquatorColor: {r: 0.114, g: 0.125, b: 0.133, a: 1}
  m_AmbientGroundColor: {r: 0.047, g: 0.043, b: 0.035, a: 1}
  m_AmbientIntensity: 1
  m_AmbientMode: 0
  m_SubtractiveShadowColor: {r: 0.42, g: 0.478, b: 0.627, a: 1}
  m_SkyboxMaterial: {fileID: 10304, guid: 0000000000000000f000000000000000, type: 0}
  m_HaloStrength: 0.5
  m_FlareStrength: 1
  m_FlareFadeSpeed: 3
  m_HaloTexture: {fileID: 0}
  m_SpotCookie: {fileID: 10001, guid: 0000000000000000e000000000000000, type: 0}
  m_DefaultReflectionMode: 0
  m_DefaultReflectionResolution: 128
  m_ReflectionBounces: 1
  m_ReflectionIntensity: 1
  m_CustomReflection: {fileID: 0}
  m_Sun: {fileID: 0}
  m_IndirectSpecularColor: {r: 0, g: 0, b: 0, a: 1}
  m_UseRadianceAmbientProbe: 0
--- !u!157 &3
LightmapSettings:
  m_ObjectHideFlags: 0
  serializedVersion: 11
  m_GIWorkflowMode: 1
  m_GISettings:
    serializedVersion: 2
    m_BounceScale: 1
    m_IndirectOutputScale: 1
    m_AlbedoBoost: 1
    m_EnvironmentLightingMode: 0
    m_EnableBakedLightmaps: 1
    m_EnableRealtimeLightmaps: 1
  m_LightmapEditorSettings:
    serializedVersion: 12
    m_Resolution: 2
    m_BakeResolution: 40
    m_AtlasSize: 1024
    m_AO: 0
    m_AOMaxDistance: 1
    m_CompAOExponent: 1
    m_CompAOExponentDirect: 0
    m_ExtractAmbientOcclusion: 0
    m_Padding: 2
    m_LightmapParameters: {fileID: 0}
    m_LightmapsBakeMode: 1
    m_TextureCompression: 1
    m_FinalGather: 0
    m_FinalGatherFiltering: 1
    m_FinalGatherRayCount: 256
    m_ReflectionCompression: 2
    m_MixedBakeMode: 2
    m_BakeBackend: 1
    m_PVRSampling: 1
    m_PVRDirectSampleCount: 32
    m_PVRSampleCount: 512
    m_PVRBounces: 2
    m_PVREnvironmentSampleCount: 256
    m_PVREnvironmentReferencePointCount: 2048
    m_PVRFilteringMode: 1
    m_PVRDenoiserTypeDirect: 1
    m_PVRDenoiserTypeIndirect: 1
    m_PVRDenoiserTypeAO: 1
    m_PVRFilterTypeDirect: 0
    m_PVRFilterTypeIndirect: 0
    m_PVRFilterTypeAO: 0
    m_PVREnvironmentMIS: 1
    m_PVRCulling: 1
    m_PVRFilteringGaussRadiusDirect: 1
    m_PVRFilteringGaussRadiusIndirect: 5
    m_PVRFilteringGaussRadiusAO: 2
    m_PVRFilteringAtrousPositionSigmaDirect: 0.5
    m_PVRFilteringAtrousPositionSigmaIndirect: 2
    m_PVRFilteringAtrousPositionSigmaAO: 1
    m_ShowResolutionOverlay: 1
    m_ExportTrainingData: 0
  m_LightingDataAsset: {fileID: 0}
  m_UseShadowmask: 1
--- !u!196 &4
NavMeshSettings:
  serializedVersion: 2
  m_ObjectHideFlags: 0
  m_BuildSettings:
    serializedVersion: 2
    agentTypeID: 0
    agentRadius: 0.5
    agentHeight: 2
    agentSlope: 45
    agentClimb: 0.4
    ledgeDropHeight: 0
    maxJumpAcrossDistance: 0
    minRegionArea: 2
    manualCellSize: 0
    cellSize: 0.16666667
    manualTileSize: 0
    tileSize: 256
    accuratePlacement: 0
    debug:
      m_Flags: 0
  m_NavMeshData: {fileID: 0}
--- !u!1001 &627751978
PrefabInstance:
  m_ObjectHideFlags: 0
  serializedVersion: 2
  m_Modification:
    m_TransformParent: {fileID: 0}
    m_Modifications:
    - target: {fileID: 7689276538084434862, guid: 6c60a8723bbcae54483fcfffdc3a79e9,
        type: 3}
      propertyPath: m_Name
      value: EnemySpawner (6)
      objectReference: {fileID: 0}
    - target: {fileID: 7689276538084434860, guid: 6c60a8723bbcae54483fcfffdc3a79e9,
        type: 3}
      propertyPath: m_LocalPosition.x
      value: 90.1
      objectReference: {fileID: 0}
    - target: {fileID: 7689276538084434860, guid: 6c60a8723bbcae54483fcfffdc3a79e9,
        type: 3}
      propertyPath: m_LocalPosition.y
      value: 0.2
      objectReference: {fileID: 0}
    - target: {fileID: 7689276538084434860, guid: 6c60a8723bbcae54483fcfffdc3a79e9,
        type: 3}
      propertyPath: m_LocalPosition.z
      value: 49.9
      objectReference: {fileID: 0}
    - target: {fileID: 7689276538084434860, guid: 6c60a8723bbcae54483fcfffdc3a79e9,
        type: 3}
      propertyPath: m_LocalRotation.x
      value: 0
      objectReference: {fileID: 0}
    - target: {fileID: 7689276538084434860, guid: 6c60a8723bbcae54483fcfffdc3a79e9,
        type: 3}
      propertyPath: m_LocalRotation.y
      value: 0
      objectReference: {fileID: 0}
    - target: {fileID: 7689276538084434860, guid: 6c60a8723bbcae54483fcfffdc3a79e9,
        type: 3}
      propertyPath: m_LocalRotation.z
      value: 0
      objectReference: {fileID: 0}
    - target: {fileID: 7689276538084434860, guid: 6c60a8723bbcae54483fcfffdc3a79e9,
        type: 3}
      propertyPath: m_LocalRotation.w
      value: 1
      objectReference: {fileID: 0}
    - target: {fileID: 7689276538084434860, guid: 6c60a8723bbcae54483fcfffdc3a79e9,
        type: 3}
      propertyPath: m_RootOrder
      value: 5
      objectReference: {fileID: 0}
    - target: {fileID: 7689276538084434860, guid: 6c60a8723bbcae54483fcfffdc3a79e9,
        type: 3}
      propertyPath: m_LocalEulerAnglesHint.x
      value: 0
      objectReference: {fileID: 0}
    - target: {fileID: 7689276538084434860, guid: 6c60a8723bbcae54483fcfffdc3a79e9,
        type: 3}
      propertyPath: m_LocalEulerAnglesHint.y
      value: 0
      objectReference: {fileID: 0}
    - target: {fileID: 7689276538084434860, guid: 6c60a8723bbcae54483fcfffdc3a79e9,
        type: 3}
      propertyPath: m_LocalEulerAnglesHint.z
      value: 0
      objectReference: {fileID: 0}
    - target: {fileID: 7689276538084434860, guid: 6c60a8723bbcae54483fcfffdc3a79e9,
        type: 3}
      propertyPath: m_LocalScale.x
      value: 3.44
      objectReference: {fileID: 0}
    - target: {fileID: 7689276538084434860, guid: 6c60a8723bbcae54483fcfffdc3a79e9,
        type: 3}
      propertyPath: m_LocalScale.z
      value: 42.83
      objectReference: {fileID: 0}
    - target: {fileID: 7689276538084434863, guid: 6c60a8723bbcae54483fcfffdc3a79e9,
        type: 3}
      propertyPath: Waves.Array.size
      value: 4
      objectReference: {fileID: 0}
    - target: {fileID: 7689276538084434863, guid: 6c60a8723bbcae54483fcfffdc3a79e9,
        type: 3}
      propertyPath: rate
      value: 5
      objectReference: {fileID: 0}
    - target: {fileID: 7689276538084434863, guid: 6c60a8723bbcae54483fcfffdc3a79e9,
        type: 3}
      propertyPath: amount
      value: 4
      objectReference: {fileID: 0}
    - target: {fileID: 7689276538084434863, guid: 6c60a8723bbcae54483fcfffdc3a79e9,
        type: 3}
      propertyPath: startDelay
      value: 20
      objectReference: {fileID: 0}
    - target: {fileID: 7689276538084434863, guid: 6c60a8723bbcae54483fcfffdc3a79e9,
        type: 3}
      propertyPath: enemyPrefab
      value: 
      objectReference: {fileID: 3792905761297603253, guid: b100d2555fda6544b8818b5dc41cf59f,
        type: 3}
    - target: {fileID: 7689276538084434863, guid: 6c60a8723bbcae54483fcfffdc3a79e9,
        type: 3}
      propertyPath: Waves.Array.data[0].Delay
      value: 10
      objectReference: {fileID: 0}
    - target: {fileID: 7689276538084434863, guid: 6c60a8723bbcae54483fcfffdc3a79e9,
        type: 3}
      propertyPath: Waves.Array.data[0].Amount
      value: 4
      objectReference: {fileID: 0}
    - target: {fileID: 7689276538084434863, guid: 6c60a8723bbcae54483fcfffdc3a79e9,
        type: 3}
      propertyPath: Waves.Array.data[0].Rate
      value: 0.6
      objectReference: {fileID: 0}
    - target: {fileID: 7689276538084434863, guid: 6c60a8723bbcae54483fcfffdc3a79e9,
        type: 3}
      propertyPath: Waves.Array.data[1].Rate
      value: 0.6
      objectReference: {fileID: 0}
    - target: {fileID: 7689276538084434863, guid: 6c60a8723bbcae54483fcfffdc3a79e9,
        type: 3}
      propertyPath: Waves.Array.data[2].Delay
      value: 25
      objectReference: {fileID: 0}
    - target: {fileID: 7689276538084434863, guid: 6c60a8723bbcae54483fcfffdc3a79e9,
        type: 3}
      propertyPath: Waves.Array.data[2].Amount
      value: 1
      objectReference: {fileID: 0}
    - target: {fileID: 7689276538084434863, guid: 6c60a8723bbcae54483fcfffdc3a79e9,
        type: 3}
      propertyPath: Waves.Array.data[2].Rate
      value: 0.6
      objectReference: {fileID: 0}
    - target: {fileID: 7689276538084434863, guid: 6c60a8723bbcae54483fcfffdc3a79e9,
        type: 3}
      propertyPath: Waves.Array.data[1].Delay
      value: 12
      objectReference: {fileID: 0}
    - target: {fileID: 7689276538084434863, guid: 6c60a8723bbcae54483fcfffdc3a79e9,
        type: 3}
      propertyPath: Waves.Array.data[1].Amount
      value: 1
      objectReference: {fileID: 0}
    - target: {fileID: 7689276538084434863, guid: 6c60a8723bbcae54483fcfffdc3a79e9,
        type: 3}
      propertyPath: Waves.Array.data[0].Mob
      value: 
      objectReference: {fileID: 6371734950014430893, guid: 0bfe004afa0dd400fbd21d651adf6358,
        type: 3}
    - target: {fileID: 7689276538084434863, guid: 6c60a8723bbcae54483fcfffdc3a79e9,
        type: 3}
      propertyPath: Waves.Array.data[1].Mob
      value: 
      objectReference: {fileID: 4541430882112309409, guid: fb032c66b87d440d992123d2d6558833,
        type: 3}
    - target: {fileID: 7689276538084434863, guid: 6c60a8723bbcae54483fcfffdc3a79e9,
        type: 3}
      propertyPath: Waves.Array.data[2].Mob
      value: 
      objectReference: {fileID: 4541430882112309409, guid: fb032c66b87d440d992123d2d6558833,
        type: 3}
    - target: {fileID: 7689276538084434863, guid: 6c60a8723bbcae54483fcfffdc3a79e9,
        type: 3}
      propertyPath: Waves.Array.data[3].Delay
      value: 40
      objectReference: {fileID: 0}
    - target: {fileID: 7689276538084434863, guid: 6c60a8723bbcae54483fcfffdc3a79e9,
        type: 3}
      propertyPath: Waves.Array.data[3].Rate
      value: 1
      objectReference: {fileID: 0}
    - target: {fileID: 7689276538084434863, guid: 6c60a8723bbcae54483fcfffdc3a79e9,
        type: 3}
      propertyPath: Waves.Array.data[3].Mob
      value: 
      objectReference: {fileID: 6371734950014430893, guid: 0bfe004afa0dd400fbd21d651adf6358,
        type: 3}
    - target: {fileID: 7689276538084434863, guid: 6c60a8723bbcae54483fcfffdc3a79e9,
        type: 3}
      propertyPath: Waves.Array.data[3].Amount
      value: 5
      objectReference: {fileID: 0}
    m_RemovedComponents: []
  m_SourcePrefab: {fileID: 100100000, guid: 6c60a8723bbcae54483fcfffdc3a79e9, type: 3}
--- !u!1001 &853522479
PrefabInstance:
  m_ObjectHideFlags: 0
  serializedVersion: 2
  m_Modification:
    m_TransformParent: {fileID: 0}
    m_Modifications:
    - target: {fileID: 4253425430317338469, guid: 458f8417182624306bebdc0c4e813527,
        type: 3}
      propertyPath: m_Name
      value: UnitsSpawnArea (1)
      objectReference: {fileID: 0}
    - target: {fileID: 4253425430317338471, guid: 458f8417182624306bebdc0c4e813527,
        type: 3}
      propertyPath: m_LocalPosition.x
      value: 52.5
      objectReference: {fileID: 0}
    - target: {fileID: 4253425430317338471, guid: 458f8417182624306bebdc0c4e813527,
        type: 3}
      propertyPath: m_LocalPosition.y
      value: 0
      objectReference: {fileID: 0}
    - target: {fileID: 4253425430317338471, guid: 458f8417182624306bebdc0c4e813527,
        type: 3}
      propertyPath: m_LocalPosition.z
      value: 38.3
      objectReference: {fileID: 0}
    - target: {fileID: 4253425430317338471, guid: 458f8417182624306bebdc0c4e813527,
        type: 3}
      propertyPath: m_LocalRotation.x
      value: 0
      objectReference: {fileID: 0}
    - target: {fileID: 4253425430317338471, guid: 458f8417182624306bebdc0c4e813527,
        type: 3}
      propertyPath: m_LocalRotation.y
      value: 0
      objectReference: {fileID: 0}
    - target: {fileID: 4253425430317338471, guid: 458f8417182624306bebdc0c4e813527,
        type: 3}
      propertyPath: m_LocalRotation.z
      value: 0
      objectReference: {fileID: 0}
    - target: {fileID: 4253425430317338471, guid: 458f8417182624306bebdc0c4e813527,
        type: 3}
      propertyPath: m_LocalRotation.w
      value: 1
      objectReference: {fileID: 0}
    - target: {fileID: 4253425430317338471, guid: 458f8417182624306bebdc0c4e813527,
        type: 3}
      propertyPath: m_RootOrder
      value: 0
      objectReference: {fileID: 0}
    - target: {fileID: 4253425430317338471, guid: 458f8417182624306bebdc0c4e813527,
        type: 3}
      propertyPath: m_LocalEulerAnglesHint.x
      value: 0
      objectReference: {fileID: 0}
    - target: {fileID: 4253425430317338471, guid: 458f8417182624306bebdc0c4e813527,
        type: 3}
      propertyPath: m_LocalEulerAnglesHint.y
      value: 0
      objectReference: {fileID: 0}
    - target: {fileID: 4253425430317338471, guid: 458f8417182624306bebdc0c4e813527,
        type: 3}
      propertyPath: m_LocalEulerAnglesHint.z
      value: 0
      objectReference: {fileID: 0}
    - target: {fileID: 4253425430317338471, guid: 458f8417182624306bebdc0c4e813527,
        type: 3}
      propertyPath: m_LocalScale.z
      value: 3.7661023
      objectReference: {fileID: 0}
    - target: {fileID: 4253425430317338471, guid: 458f8417182624306bebdc0c4e813527,
        type: 3}
      propertyPath: m_LocalScale.x
      value: 7.3054576
      objectReference: {fileID: 0}
    m_RemovedComponents: []
  m_SourcePrefab: {fileID: 100100000, guid: 458f8417182624306bebdc0c4e813527, type: 3}
--- !u!1001 &1032819298
PrefabInstance:
  m_ObjectHideFlags: 0
  serializedVersion: 2
  m_Modification:
    m_TransformParent: {fileID: 0}
    m_Modifications:
    - target: {fileID: 7689276538084434862, guid: 6c60a8723bbcae54483fcfffdc3a79e9,
        type: 3}
      propertyPath: m_Name
      value: EnemySpawner
      objectReference: {fileID: 0}
    - target: {fileID: 7689276538084434860, guid: 6c60a8723bbcae54483fcfffdc3a79e9,
        type: 3}
      propertyPath: m_LocalPosition.x
      value: 49.7
      objectReference: {fileID: 0}
    - target: {fileID: 7689276538084434860, guid: 6c60a8723bbcae54483fcfffdc3a79e9,
        type: 3}
      propertyPath: m_LocalPosition.y
      value: 0.6
      objectReference: {fileID: 0}
    - target: {fileID: 7689276538084434860, guid: 6c60a8723bbcae54483fcfffdc3a79e9,
        type: 3}
      propertyPath: m_LocalPosition.z
      value: 8.2
      objectReference: {fileID: 0}
    - target: {fileID: 7689276538084434860, guid: 6c60a8723bbcae54483fcfffdc3a79e9,
        type: 3}
      propertyPath: m_LocalRotation.x
      value: 0
      objectReference: {fileID: 0}
    - target: {fileID: 7689276538084434860, guid: 6c60a8723bbcae54483fcfffdc3a79e9,
        type: 3}
      propertyPath: m_LocalRotation.y
      value: 0
      objectReference: {fileID: 0}
    - target: {fileID: 7689276538084434860, guid: 6c60a8723bbcae54483fcfffdc3a79e9,
        type: 3}
      propertyPath: m_LocalRotation.z
      value: 0
      objectReference: {fileID: 0}
    - target: {fileID: 7689276538084434860, guid: 6c60a8723bbcae54483fcfffdc3a79e9,
        type: 3}
      propertyPath: m_LocalRotation.w
      value: 1
      objectReference: {fileID: 0}
    - target: {fileID: 7689276538084434860, guid: 6c60a8723bbcae54483fcfffdc3a79e9,
        type: 3}
      propertyPath: m_RootOrder
      value: 1
      objectReference: {fileID: 0}
    - target: {fileID: 7689276538084434860, guid: 6c60a8723bbcae54483fcfffdc3a79e9,
        type: 3}
      propertyPath: m_LocalEulerAnglesHint.x
      value: 0
      objectReference: {fileID: 0}
    - target: {fileID: 7689276538084434860, guid: 6c60a8723bbcae54483fcfffdc3a79e9,
        type: 3}
      propertyPath: m_LocalEulerAnglesHint.y
      value: 0
      objectReference: {fileID: 0}
    - target: {fileID: 7689276538084434860, guid: 6c60a8723bbcae54483fcfffdc3a79e9,
        type: 3}
      propertyPath: m_LocalEulerAnglesHint.z
      value: 0
      objectReference: {fileID: 0}
    - target: {fileID: 7689276538084434860, guid: 6c60a8723bbcae54483fcfffdc3a79e9,
        type: 3}
      propertyPath: m_LocalScale.x
      value: 24.92251
      objectReference: {fileID: 0}
    - target: {fileID: 7689276538084434860, guid: 6c60a8723bbcae54483fcfffdc3a79e9,
        type: 3}
      propertyPath: m_LocalScale.z
      value: 3.0829
      objectReference: {fileID: 0}
    - target: {fileID: 7689276538084434863, guid: 6c60a8723bbcae54483fcfffdc3a79e9,
        type: 3}
      propertyPath: Waves.Array.size
      value: 5
      objectReference: {fileID: 0}
    - target: {fileID: 7689276538084434863, guid: 6c60a8723bbcae54483fcfffdc3a79e9,
        type: 3}
      propertyPath: rate
      value: 2
      objectReference: {fileID: 0}
    - target: {fileID: 7689276538084434863, guid: 6c60a8723bbcae54483fcfffdc3a79e9,
        type: 3}
      propertyPath: amount
      value: 2
      objectReference: {fileID: 0}
    - target: {fileID: 7689276538084434863, guid: 6c60a8723bbcae54483fcfffdc3a79e9,
        type: 3}
      propertyPath: enemyPrefab
      value: 
      objectReference: {fileID: 3792905761297603253, guid: b100d2555fda6544b8818b5dc41cf59f,
        type: 3}
    - target: {fileID: 7689276538084434863, guid: 6c60a8723bbcae54483fcfffdc3a79e9,
        type: 3}
      propertyPath: startDelay
      value: 8
      objectReference: {fileID: 0}
    - target: {fileID: 7689276538084434863, guid: 6c60a8723bbcae54483fcfffdc3a79e9,
        type: 3}
      propertyPath: Waves.Array.data[0].Delay
      value: 8
      objectReference: {fileID: 0}
    - target: {fileID: 7689276538084434863, guid: 6c60a8723bbcae54483fcfffdc3a79e9,
        type: 3}
      propertyPath: Waves.Array.data[0].Amount
      value: 4
      objectReference: {fileID: 0}
    - target: {fileID: 7689276538084434863, guid: 6c60a8723bbcae54483fcfffdc3a79e9,
        type: 3}
      propertyPath: Waves.Array.data[1].Delay
      value: 15
      objectReference: {fileID: 0}
    - target: {fileID: 7689276538084434863, guid: 6c60a8723bbcae54483fcfffdc3a79e9,
        type: 3}
      propertyPath: Waves.Array.data[1].Amount
      value: 3
      objectReference: {fileID: 0}
    - target: {fileID: 7689276538084434863, guid: 6c60a8723bbcae54483fcfffdc3a79e9,
        type: 3}
      propertyPath: Waves.Array.data[0].Mob
      value: 
      objectReference: {fileID: 6371734950014430893, guid: 0bfe004afa0dd400fbd21d651adf6358,
        type: 3}
    - target: {fileID: 7689276538084434863, guid: 6c60a8723bbcae54483fcfffdc3a79e9,
        type: 3}
      propertyPath: Waves.Array.data[1].Mob
      value: 
      objectReference: {fileID: 6371734950014430893, guid: 0bfe004afa0dd400fbd21d651adf6358,
        type: 3}
    - target: {fileID: 7689276538084434863, guid: 6c60a8723bbcae54483fcfffdc3a79e9,
        type: 3}
      propertyPath: Waves.Array.data[0].Rate
      value: 1
      objectReference: {fileID: 0}
    - target: {fileID: 7689276538084434863, guid: 6c60a8723bbcae54483fcfffdc3a79e9,
        type: 3}
      propertyPath: Waves.Array.data[2].Delay
      value: 15
      objectReference: {fileID: 0}
    - target: {fileID: 7689276538084434863, guid: 6c60a8723bbcae54483fcfffdc3a79e9,
        type: 3}
      propertyPath: Waves.Array.data[2].Mob
      value: 
      objectReference: {fileID: 6371734950014430893, guid: 0bfe004afa0dd400fbd21d651adf6358,
        type: 3}
    - target: {fileID: 7689276538084434863, guid: 6c60a8723bbcae54483fcfffdc3a79e9,
        type: 3}
      propertyPath: Waves.Array.data[2].Amount
      value: 3
      objectReference: {fileID: 0}
    - target: {fileID: 7689276538084434863, guid: 6c60a8723bbcae54483fcfffdc3a79e9,
        type: 3}
      propertyPath: Waves.Array.data[3].Delay
      value: 48
      objectReference: {fileID: 0}
    - target: {fileID: 7689276538084434863, guid: 6c60a8723bbcae54483fcfffdc3a79e9,
        type: 3}
      propertyPath: Waves.Array.data[3].Mob
      value: 
      objectReference: {fileID: 6371734950014430893, guid: 0bfe004afa0dd400fbd21d651adf6358,
        type: 3}
    - target: {fileID: 7689276538084434863, guid: 6c60a8723bbcae54483fcfffdc3a79e9,
        type: 3}
      propertyPath: Waves.Array.data[3].Amount
      value: 4
      objectReference: {fileID: 0}
    - target: {fileID: 7689276538084434863, guid: 6c60a8723bbcae54483fcfffdc3a79e9,
        type: 3}
      propertyPath: Waves.Array.data[4].Delay
      value: 55
      objectReference: {fileID: 0}
    - target: {fileID: 7689276538084434863, guid: 6c60a8723bbcae54483fcfffdc3a79e9,
        type: 3}
      propertyPath: Waves.Array.data[4].Mob
      value: 
      objectReference: {fileID: 4541430882112309409, guid: fb032c66b87d440d992123d2d6558833,
        type: 3}
    - target: {fileID: 7689276538084434863, guid: 6c60a8723bbcae54483fcfffdc3a79e9,
        type: 3}
      propertyPath: Waves.Array.data[4].Amount
      value: 1
      objectReference: {fileID: 0}
    - target: {fileID: 7689276538084434863, guid: 6c60a8723bbcae54483fcfffdc3a79e9,
        type: 3}
      propertyPath: Waves.Array.data[3].Rate
      value: 1
      objectReference: {fileID: 0}
    m_RemovedComponents: []
  m_SourcePrefab: {fileID: 100100000, guid: 6c60a8723bbcae54483fcfffdc3a79e9, type: 3}
--- !u!1001 &1186644427
PrefabInstance:
  m_ObjectHideFlags: 0
  serializedVersion: 2
  m_Modification:
    m_TransformParent: {fileID: 0}
    m_Modifications:
    - target: {fileID: 7689276538084434862, guid: 6c60a8723bbcae54483fcfffdc3a79e9,
        type: 3}
      propertyPath: m_Name
      value: EnemySpawner (5)
      objectReference: {fileID: 0}
    - target: {fileID: 7689276538084434860, guid: 6c60a8723bbcae54483fcfffdc3a79e9,
        type: 3}
      propertyPath: m_LocalPosition.x
      value: 10.6
      objectReference: {fileID: 0}
    - target: {fileID: 7689276538084434860, guid: 6c60a8723bbcae54483fcfffdc3a79e9,
        type: 3}
      propertyPath: m_LocalPosition.y
      value: 0.2
      objectReference: {fileID: 0}
    - target: {fileID: 7689276538084434860, guid: 6c60a8723bbcae54483fcfffdc3a79e9,
        type: 3}
      propertyPath: m_LocalPosition.z
      value: 49.9
      objectReference: {fileID: 0}
    - target: {fileID: 7689276538084434860, guid: 6c60a8723bbcae54483fcfffdc3a79e9,
        type: 3}
      propertyPath: m_LocalRotation.x
      value: 0
      objectReference: {fileID: 0}
    - target: {fileID: 7689276538084434860, guid: 6c60a8723bbcae54483fcfffdc3a79e9,
        type: 3}
      propertyPath: m_LocalRotation.y
      value: 0
      objectReference: {fileID: 0}
    - target: {fileID: 7689276538084434860, guid: 6c60a8723bbcae54483fcfffdc3a79e9,
        type: 3}
      propertyPath: m_LocalRotation.z
      value: 0
      objectReference: {fileID: 0}
    - target: {fileID: 7689276538084434860, guid: 6c60a8723bbcae54483fcfffdc3a79e9,
        type: 3}
      propertyPath: m_LocalRotation.w
      value: 1
      objectReference: {fileID: 0}
    - target: {fileID: 7689276538084434860, guid: 6c60a8723bbcae54483fcfffdc3a79e9,
        type: 3}
      propertyPath: m_RootOrder
      value: 4
      objectReference: {fileID: 0}
    - target: {fileID: 7689276538084434860, guid: 6c60a8723bbcae54483fcfffdc3a79e9,
        type: 3}
      propertyPath: m_LocalEulerAnglesHint.x
      value: 0
      objectReference: {fileID: 0}
    - target: {fileID: 7689276538084434860, guid: 6c60a8723bbcae54483fcfffdc3a79e9,
        type: 3}
      propertyPath: m_LocalEulerAnglesHint.y
      value: 0
      objectReference: {fileID: 0}
    - target: {fileID: 7689276538084434860, guid: 6c60a8723bbcae54483fcfffdc3a79e9,
        type: 3}
      propertyPath: m_LocalEulerAnglesHint.z
      value: 0
      objectReference: {fileID: 0}
    - target: {fileID: 7689276538084434860, guid: 6c60a8723bbcae54483fcfffdc3a79e9,
        type: 3}
      propertyPath: m_LocalScale.x
      value: 3.44
      objectReference: {fileID: 0}
    - target: {fileID: 7689276538084434860, guid: 6c60a8723bbcae54483fcfffdc3a79e9,
        type: 3}
      propertyPath: m_LocalScale.z
      value: 42.83
      objectReference: {fileID: 0}
    - target: {fileID: 7689276538084434863, guid: 6c60a8723bbcae54483fcfffdc3a79e9,
        type: 3}
      propertyPath: Waves.Array.size
      value: 4
      objectReference: {fileID: 0}
    - target: {fileID: 7689276538084434863, guid: 6c60a8723bbcae54483fcfffdc3a79e9,
        type: 3}
      propertyPath: rate
      value: 5
      objectReference: {fileID: 0}
    - target: {fileID: 7689276538084434863, guid: 6c60a8723bbcae54483fcfffdc3a79e9,
        type: 3}
      propertyPath: amount
      value: 4
      objectReference: {fileID: 0}
    - target: {fileID: 7689276538084434863, guid: 6c60a8723bbcae54483fcfffdc3a79e9,
        type: 3}
      propertyPath: startDelay
      value: 20
      objectReference: {fileID: 0}
    - target: {fileID: 7689276538084434863, guid: 6c60a8723bbcae54483fcfffdc3a79e9,
        type: 3}
      propertyPath: enemyPrefab
      value: 
      objectReference: {fileID: 3792905761297603253, guid: b100d2555fda6544b8818b5dc41cf59f,
        type: 3}
    - target: {fileID: 7689276538084434863, guid: 6c60a8723bbcae54483fcfffdc3a79e9,
        type: 3}
      propertyPath: Waves.Array.data[0].Delay
      value: 4
      objectReference: {fileID: 0}
    - target: {fileID: 7689276538084434863, guid: 6c60a8723bbcae54483fcfffdc3a79e9,
        type: 3}
      propertyPath: Waves.Array.data[0].Amount
      value: 4
      objectReference: {fileID: 0}
    - target: {fileID: 7689276538084434863, guid: 6c60a8723bbcae54483fcfffdc3a79e9,
        type: 3}
      propertyPath: Waves.Array.data[0].Rate
      value: 0.7
      objectReference: {fileID: 0}
    - target: {fileID: 7689276538084434863, guid: 6c60a8723bbcae54483fcfffdc3a79e9,
        type: 3}
      propertyPath: Waves.Array.data[1].Rate
      value: 0.2
      objectReference: {fileID: 0}
    - target: {fileID: 7689276538084434863, guid: 6c60a8723bbcae54483fcfffdc3a79e9,
        type: 3}
      propertyPath: Waves.Array.data[2].Delay
      value: 40
      objectReference: {fileID: 0}
    - target: {fileID: 7689276538084434863, guid: 6c60a8723bbcae54483fcfffdc3a79e9,
        type: 3}
      propertyPath: Waves.Array.data[2].Amount
      value: 5
      objectReference: {fileID: 0}
    - target: {fileID: 7689276538084434863, guid: 6c60a8723bbcae54483fcfffdc3a79e9,
        type: 3}
      propertyPath: Waves.Array.data[2].Rate
      value: 0.2
      objectReference: {fileID: 0}
    - target: {fileID: 7689276538084434863, guid: 6c60a8723bbcae54483fcfffdc3a79e9,
        type: 3}
      propertyPath: Waves.Array.data[1].Delay
      value: 30
      objectReference: {fileID: 0}
    - target: {fileID: 7689276538084434863, guid: 6c60a8723bbcae54483fcfffdc3a79e9,
        type: 3}
      propertyPath: Waves.Array.data[1].Amount
      value: 1
      objectReference: {fileID: 0}
    - target: {fileID: 7689276538084434863, guid: 6c60a8723bbcae54483fcfffdc3a79e9,
        type: 3}
      propertyPath: Waves.Array.data[0].Mob
      value: 
      objectReference: {fileID: 6371734950014430893, guid: 0bfe004afa0dd400fbd21d651adf6358,
        type: 3}
    - target: {fileID: 7689276538084434863, guid: 6c60a8723bbcae54483fcfffdc3a79e9,
        type: 3}
      propertyPath: Waves.Array.data[1].Mob
      value: 
      objectReference: {fileID: 3792905761297603253, guid: b100d2555fda6544b8818b5dc41cf59f,
        type: 3}
    - target: {fileID: 7689276538084434863, guid: 6c60a8723bbcae54483fcfffdc3a79e9,
        type: 3}
      propertyPath: Waves.Array.data[2].Mob
      value: 
      objectReference: {fileID: 6371734950014430893, guid: 0bfe004afa0dd400fbd21d651adf6358,
        type: 3}
    - target: {fileID: 7689276538084434863, guid: 6c60a8723bbcae54483fcfffdc3a79e9,
        type: 3}
      propertyPath: Waves.Array.data[3].Delay
      value: 30
      objectReference: {fileID: 0}
    - target: {fileID: 7689276538084434863, guid: 6c60a8723bbcae54483fcfffdc3a79e9,
        type: 3}
      propertyPath: Waves.Array.data[3].Rate
      value: 0.2
      objectReference: {fileID: 0}
    - target: {fileID: 7689276538084434863, guid: 6c60a8723bbcae54483fcfffdc3a79e9,
        type: 3}
      propertyPath: Waves.Array.data[3].Mob
      value: 
      objectReference: {fileID: 3792905761297603253, guid: b100d2555fda6544b8818b5dc41cf59f,
        type: 3}
    - target: {fileID: 7689276538084434863, guid: 6c60a8723bbcae54483fcfffdc3a79e9,
        type: 3}
      propertyPath: Waves.Array.data[3].Amount
      value: 1
      objectReference: {fileID: 0}
    m_RemovedComponents: []
  m_SourcePrefab: {fileID: 100100000, guid: 6c60a8723bbcae54483fcfffdc3a79e9, type: 3}
--- !u!1001 &1403029158
PrefabInstance:
  m_ObjectHideFlags: 0
  serializedVersion: 2
  m_Modification:
    m_TransformParent: {fileID: 0}
    m_Modifications:
    - target: {fileID: 7689276538084434862, guid: 6c60a8723bbcae54483fcfffdc3a79e9,
        type: 3}
      propertyPath: m_Name
      value: EnemySpawner (4)
      objectReference: {fileID: 0}
    - target: {fileID: 7689276538084434860, guid: 6c60a8723bbcae54483fcfffdc3a79e9,
        type: 3}
      propertyPath: m_LocalPosition.x
      value: 55.8
      objectReference: {fileID: 0}
    - target: {fileID: 7689276538084434860, guid: 6c60a8723bbcae54483fcfffdc3a79e9,
        type: 3}
      propertyPath: m_LocalPosition.y
      value: 0.2
      objectReference: {fileID: 0}
    - target: {fileID: 7689276538084434860, guid: 6c60a8723bbcae54483fcfffdc3a79e9,
        type: 3}
      propertyPath: m_LocalPosition.z
      value: 89.6
      objectReference: {fileID: 0}
    - target: {fileID: 7689276538084434860, guid: 6c60a8723bbcae54483fcfffdc3a79e9,
        type: 3}
      propertyPath: m_LocalRotation.x
      value: 0
      objectReference: {fileID: 0}
    - target: {fileID: 7689276538084434860, guid: 6c60a8723bbcae54483fcfffdc3a79e9,
        type: 3}
      propertyPath: m_LocalRotation.y
      value: 0
      objectReference: {fileID: 0}
    - target: {fileID: 7689276538084434860, guid: 6c60a8723bbcae54483fcfffdc3a79e9,
        type: 3}
      propertyPath: m_LocalRotation.z
      value: 0
      objectReference: {fileID: 0}
    - target: {fileID: 7689276538084434860, guid: 6c60a8723bbcae54483fcfffdc3a79e9,
        type: 3}
      propertyPath: m_LocalRotation.w
      value: 1
      objectReference: {fileID: 0}
    - target: {fileID: 7689276538084434860, guid: 6c60a8723bbcae54483fcfffdc3a79e9,
        type: 3}
      propertyPath: m_RootOrder
      value: 3
      objectReference: {fileID: 0}
    - target: {fileID: 7689276538084434860, guid: 6c60a8723bbcae54483fcfffdc3a79e9,
        type: 3}
      propertyPath: m_LocalEulerAnglesHint.x
      value: 0
      objectReference: {fileID: 0}
    - target: {fileID: 7689276538084434860, guid: 6c60a8723bbcae54483fcfffdc3a79e9,
        type: 3}
      propertyPath: m_LocalEulerAnglesHint.y
      value: 0
      objectReference: {fileID: 0}
    - target: {fileID: 7689276538084434860, guid: 6c60a8723bbcae54483fcfffdc3a79e9,
        type: 3}
      propertyPath: m_LocalEulerAnglesHint.z
      value: 0
      objectReference: {fileID: 0}
    - target: {fileID: 7689276538084434860, guid: 6c60a8723bbcae54483fcfffdc3a79e9,
        type: 3}
      propertyPath: m_LocalScale.x
      value: 21.52284
      objectReference: {fileID: 0}
    - target: {fileID: 7689276538084434860, guid: 6c60a8723bbcae54483fcfffdc3a79e9,
        type: 3}
      propertyPath: m_LocalScale.z
      value: 3.0829
      objectReference: {fileID: 0}
    - target: {fileID: 7689276538084434863, guid: 6c60a8723bbcae54483fcfffdc3a79e9,
        type: 3}
      propertyPath: Waves.Array.size
      value: 6
      objectReference: {fileID: 0}
    - target: {fileID: 7689276538084434863, guid: 6c60a8723bbcae54483fcfffdc3a79e9,
        type: 3}
      propertyPath: rate
      value: 5
      objectReference: {fileID: 0}
    - target: {fileID: 7689276538084434863, guid: 6c60a8723bbcae54483fcfffdc3a79e9,
        type: 3}
      propertyPath: amount
      value: 4
      objectReference: {fileID: 0}
    - target: {fileID: 7689276538084434863, guid: 6c60a8723bbcae54483fcfffdc3a79e9,
        type: 3}
      propertyPath: startDelay
      value: 20
      objectReference: {fileID: 0}
    - target: {fileID: 7689276538084434863, guid: 6c60a8723bbcae54483fcfffdc3a79e9,
        type: 3}
      propertyPath: enemyPrefab
      value: 
      objectReference: {fileID: 3792905761297603253, guid: b100d2555fda6544b8818b5dc41cf59f,
        type: 3}
    - target: {fileID: 7689276538084434863, guid: 6c60a8723bbcae54483fcfffdc3a79e9,
        type: 3}
      propertyPath: Waves.Array.data[0].Delay
      value: 10
      objectReference: {fileID: 0}
    - target: {fileID: 7689276538084434863, guid: 6c60a8723bbcae54483fcfffdc3a79e9,
        type: 3}
      propertyPath: Waves.Array.data[0].Amount
      value: 4
      objectReference: {fileID: 0}
    - target: {fileID: 7689276538084434863, guid: 6c60a8723bbcae54483fcfffdc3a79e9,
        type: 3}
      propertyPath: Waves.Array.data[0].Rate
      value: 0.8
      objectReference: {fileID: 0}
    - target: {fileID: 7689276538084434863, guid: 6c60a8723bbcae54483fcfffdc3a79e9,
        type: 3}
      propertyPath: Waves.Array.data[1].Rate
      value: 0.8
      objectReference: {fileID: 0}
    - target: {fileID: 7689276538084434863, guid: 6c60a8723bbcae54483fcfffdc3a79e9,
        type: 3}
      propertyPath: Waves.Array.data[2].Delay
      value: 15
      objectReference: {fileID: 0}
    - target: {fileID: 7689276538084434863, guid: 6c60a8723bbcae54483fcfffdc3a79e9,
        type: 3}
      propertyPath: Waves.Array.data[2].Amount
      value: 5
      objectReference: {fileID: 0}
    - target: {fileID: 7689276538084434863, guid: 6c60a8723bbcae54483fcfffdc3a79e9,
        type: 3}
      propertyPath: Waves.Array.data[2].Rate
      value: 0.2
      objectReference: {fileID: 0}
    - target: {fileID: 7689276538084434863, guid: 6c60a8723bbcae54483fcfffdc3a79e9,
        type: 3}
      propertyPath: Waves.Array.data[1].Delay
      value: 12
      objectReference: {fileID: 0}
    - target: {fileID: 7689276538084434863, guid: 6c60a8723bbcae54483fcfffdc3a79e9,
        type: 3}
      propertyPath: Waves.Array.data[1].Amount
      value: 1
      objectReference: {fileID: 0}
    - target: {fileID: 7689276538084434863, guid: 6c60a8723bbcae54483fcfffdc3a79e9,
        type: 3}
      propertyPath: Waves.Array.data[0].Mob
      value: 
      objectReference: {fileID: 6371734950014430893, guid: 0bfe004afa0dd400fbd21d651adf6358,
        type: 3}
    - target: {fileID: 7689276538084434863, guid: 6c60a8723bbcae54483fcfffdc3a79e9,
        type: 3}
      propertyPath: Waves.Array.data[1].Mob
      value: 
      objectReference: {fileID: 4541430882112309409, guid: fb032c66b87d440d992123d2d6558833,
        type: 3}
    - target: {fileID: 7689276538084434863, guid: 6c60a8723bbcae54483fcfffdc3a79e9,
        type: 3}
      propertyPath: Waves.Array.data[2].Mob
      value: 
      objectReference: {fileID: 6371734950014430893, guid: 0bfe004afa0dd400fbd21d651adf6358,
        type: 3}
    - target: {fileID: 7689276538084434863, guid: 6c60a8723bbcae54483fcfffdc3a79e9,
        type: 3}
      propertyPath: Waves.Array.data[3].Delay
      value: 30
      objectReference: {fileID: 0}
    - target: {fileID: 7689276538084434863, guid: 6c60a8723bbcae54483fcfffdc3a79e9,
        type: 3}
      propertyPath: Waves.Array.data[3].Rate
      value: 0.2
      objectReference: {fileID: 0}
    - target: {fileID: 7689276538084434863, guid: 6c60a8723bbcae54483fcfffdc3a79e9,
        type: 3}
      propertyPath: Waves.Array.data[3].Mob
      value: 
      objectReference: {fileID: 6371734950014430893, guid: 0bfe004afa0dd400fbd21d651adf6358,
        type: 3}
    - target: {fileID: 7689276538084434863, guid: 6c60a8723bbcae54483fcfffdc3a79e9,
        type: 3}
      propertyPath: Waves.Array.data[3].Amount
      value: 5
      objectReference: {fileID: 0}
    - target: {fileID: 7689276538084434863, guid: 6c60a8723bbcae54483fcfffdc3a79e9,
        type: 3}
      propertyPath: Waves.Array.data[4].Delay
      value: 45
      objectReference: {fileID: 0}
    - target: {fileID: 7689276538084434863, guid: 6c60a8723bbcae54483fcfffdc3a79e9,
        type: 3}
      propertyPath: Waves.Array.data[4].Rate
      value: 0.2
      objectReference: {fileID: 0}
    - target: {fileID: 7689276538084434863, guid: 6c60a8723bbcae54483fcfffdc3a79e9,
        type: 3}
      propertyPath: Waves.Array.data[4].Mob
      value: 
      objectReference: {fileID: 6371734950014430893, guid: 0bfe004afa0dd400fbd21d651adf6358,
        type: 3}
    - target: {fileID: 7689276538084434863, guid: 6c60a8723bbcae54483fcfffdc3a79e9,
        type: 3}
      propertyPath: Waves.Array.data[4].Amount
      value: 5
      objectReference: {fileID: 0}
    - target: {fileID: 7689276538084434863, guid: 6c60a8723bbcae54483fcfffdc3a79e9,
        type: 3}
      propertyPath: Waves.Array.data[5].Delay
      value: 50
      objectReference: {fileID: 0}
    - target: {fileID: 7689276538084434863, guid: 6c60a8723bbcae54483fcfffdc3a79e9,
        type: 3}
      propertyPath: Waves.Array.data[5].Rate
      value: 0.2
      objectReference: {fileID: 0}
    - target: {fileID: 7689276538084434863, guid: 6c60a8723bbcae54483fcfffdc3a79e9,
        type: 3}
      propertyPath: Waves.Array.data[5].Mob
      value: 
      objectReference: {fileID: 4541430882112309409, guid: fb032c66b87d440d992123d2d6558833,
        type: 3}
    - target: {fileID: 7689276538084434863, guid: 6c60a8723bbcae54483fcfffdc3a79e9,
        type: 3}
      propertyPath: Waves.Array.data[5].Amount
      value: 1
      objectReference: {fileID: 0}
    m_RemovedComponents: []
  m_SourcePrefab: {fileID: 100100000, guid: 6c60a8723bbcae54483fcfffdc3a79e9, type: 3}
--- !u!1001 &1682127221
PrefabInstance:
  m_ObjectHideFlags: 0
  serializedVersion: 2
  m_Modification:
    m_TransformParent: {fileID: 0}
    m_Modifications:
    - target: {fileID: 3901091375121273072, guid: 7986f7b8f339f44f3a75a29b4532c1a7,
        type: 3}
      propertyPath: m_Name
      value: SceneLoader
      objectReference: {fileID: 0}
    - target: {fileID: 3901091375121273078, guid: 7986f7b8f339f44f3a75a29b4532c1a7,
        type: 3}
      propertyPath: m_LocalPosition.x
      value: 53.397137
      objectReference: {fileID: 0}
    - target: {fileID: 3901091375121273078, guid: 7986f7b8f339f44f3a75a29b4532c1a7,
        type: 3}
      propertyPath: m_LocalPosition.y
      value: 16.378494
      objectReference: {fileID: 0}
    - target: {fileID: 3901091375121273078, guid: 7986f7b8f339f44f3a75a29b4532c1a7,
        type: 3}
      propertyPath: m_LocalPosition.z
      value: 50.89194
      objectReference: {fileID: 0}
    - target: {fileID: 3901091375121273078, guid: 7986f7b8f339f44f3a75a29b4532c1a7,
        type: 3}
      propertyPath: m_LocalRotation.x
      value: 0
      objectReference: {fileID: 0}
    - target: {fileID: 3901091375121273078, guid: 7986f7b8f339f44f3a75a29b4532c1a7,
        type: 3}
      propertyPath: m_LocalRotation.y
      value: 0
      objectReference: {fileID: 0}
    - target: {fileID: 3901091375121273078, guid: 7986f7b8f339f44f3a75a29b4532c1a7,
        type: 3}
      propertyPath: m_LocalRotation.z
      value: 0
      objectReference: {fileID: 0}
    - target: {fileID: 3901091375121273078, guid: 7986f7b8f339f44f3a75a29b4532c1a7,
        type: 3}
      propertyPath: m_LocalRotation.w
      value: 1
      objectReference: {fileID: 0}
    - target: {fileID: 3901091375121273078, guid: 7986f7b8f339f44f3a75a29b4532c1a7,
        type: 3}
      propertyPath: m_RootOrder
      value: 2
      objectReference: {fileID: 0}
    - target: {fileID: 3901091375121273078, guid: 7986f7b8f339f44f3a75a29b4532c1a7,
        type: 3}
      propertyPath: m_LocalEulerAnglesHint.x
      value: 0
      objectReference: {fileID: 0}
    - target: {fileID: 3901091375121273078, guid: 7986f7b8f339f44f3a75a29b4532c1a7,
        type: 3}
      propertyPath: m_LocalEulerAnglesHint.y
      value: 0
      objectReference: {fileID: 0}
    - target: {fileID: 3901091375121273078, guid: 7986f7b8f339f44f3a75a29b4532c1a7,
        type: 3}
      propertyPath: m_LocalEulerAnglesHint.z
      value: 0
      objectReference: {fileID: 0}
    - target: {fileID: 5516817341594133187, guid: 7986f7b8f339f44f3a75a29b4532c1a7,
        type: 3}
      propertyPath: AddToShopItems.Array.size
      value: 1
      objectReference: {fileID: 0}
    - target: {fileID: 5516817341594133187, guid: 7986f7b8f339f44f3a75a29b4532c1a7,
        type: 3}
      propertyPath: AddToShopItems.Array.data[0]
      value: 
      objectReference: {fileID: 431455068266229665, guid: 7046bf2d6dcda4a298f8cacb90ccc6ab,
        type: 3}
    m_RemovedComponents: []
  m_SourcePrefab: {fileID: 100100000, guid: 7986f7b8f339f44f3a75a29b4532c1a7, type: 3}
