%YAML 1.1
%TAG !u! tag:unity3d.com,2011:
--- !u!1045 &1
EditorBuildSettings:
  m_ObjectHideFlags: 0
  serializedVersion: 2
  m_Scenes:
  - enabled: 1
    path: Assets/Scenes/Gameplay/StartGameScene.unity
    guid: 4a905d85eade64618bfe926ca1b42e57
  - enabled: 1
    path: Assets/Scenes/graal_gameplay.unity
    guid: 01d50bfcc78224f5980711fc1a286d36
  - enabled: 1
    path: Assets/Scenes/UIOnly/InterlevelShopScene.unity
    guid: 0ddb0e7e92c2b4616b95f2853e53b09b
  - enabled: 1
    path: Assets/Scenes/Gameplay/Terrain1/Wave1.unity
    guid: b9b3ead07992a47f89745fe050f9c94e
  - enabled: 1
    path: Assets/Scenes/Gameplay/BasicScene.unity
    guid: d28bb5bddc911497d8343c161eadabbb
  - enabled: 1
    path: Assets/Scenes/Gameplay/Terrain1/Terrain1.unity
    guid: 8d055a4104b0f40438f44228475481e2
  - enabled: 1
    path: Assets/Scenes/Gameplay/Terrain1/Wave2.unity
    guid: 5482281989186499da67d96b66709128
  - enabled: 1
    path: Assets/Scenes/Gameplay/Terrain1/Wave3.unity
    guid: 125f48a68aab8ce4e9b321272dd803a7
  - enabled: 1
    path: Assets/Scenes/Gameplay/Terrain1/Wave4.unity
    guid: f1c9ebd070cb336458d61d505b060759
  - enabled: 1
    path: Assets/Scenes/Gameplay/Terrain1/Wave5.unity
    guid: d6b8e82adf281eb47a6feeab6cf92ab5
  - enabled: 1
    path: Assets/Scenes/Gameplay/Terrain1/Wave6.unity
    guid: aeec81e7c765dfd4680912caeeea65a9
  - enabled: 1
    path: Assets/Scenes/Gameplay/Terrain1/Wave7.unity
    guid: d6aba42bc1b7b5242960db5e556d6e74
  - enabled: 1
    path: Assets/Scenes/Gameplay/Terrain1/Wave8.unity
    guid: f2e2fec4cfc9aa8499c70601a3f030ff
  - enabled: 1
    path: Assets/Scenes/Gameplay/EndGame.unity
    guid: 7df8562f14140447dae09109c5337b4d
  m_configObjects: {}
